<svg xmlns="http://www.w3.org/2000/svg" width="32" height="32" viewBox="0 0 32 32">
  <path fill="#1C1C1C" fill-rule="evenodd" d="M18,19 L18,23 L2,23 L2,19 L18,19 Z M30,9 L30,13 L2,13 L2,9 L30,9 Z"/>
</svg>
