<svg xmlns="http://www.w3.org/2000/svg" width="32" height="32" viewBox="0 0 32 32">
  <path fill="#1C1C1C" fill-rule="evenodd" d="M25.2132034,4 L28.0416306,6.82842712 L18.849,16.021 L28.0416306,25.2132034 L25.2132034,28.0416306 L16.021,18.849 L6.82842712,28.0416306 L4,25.2132034 L13.193,16.021 L4,6.82842712 L6.82842712,4 L16.021,13.193 L25.2132034,4 Z"/>
</svg>
